…
df <- df %>% select(-c(ho_fm, ho_fs, yrs, war, war7, yo_b))

df <- df %>% mutate(inducted = if_else(inducted, "Y", "N"))

write_csv(df, "HallOfFame_2026.csv")
```




    ``` r
    df

    ## # A tibble: 27 × 6
    ##    rank  name            year_on_ballot votes percent_vote inducted
    ##    <chr> <chr>           <chr>          <dbl>        <dbl> <chr>   
    ##  1 1     Carlos Beltrán  4th              358         84.2 Y       
    ##  2 2     Andruw Jones    9th              333         78.4 Y       
    ##  3 3     Chase Utley     3rd              251         59.1 N       
    ##  4 4     Andy Pettitte   8th              206         48.5 N       
    ##  5 5     Félix Hernández 2nd              196         46.1 N       
    ##  6 6     Alex Rodriguez  5th              170         40   N       
    ##  7 7     X-Manny Ramirez 10th             165         38.8 N       
    ##  8 8     Bobby Abreu     7th              131         30.8 N       
    ##  9 9     Jimmy Rollins   5th              108         25.4 N       
    ## 10 10    Cole Hamels     1st              101         23.8 N       
    ## # ℹ 17 more rows
…
